…
``` r
# ERROR 7 FIXED
penguins_subset <-
  penguins_new %>%
  filter(Species %in% c("Adelie", "Gentoo") & Sex == "FEMALE") %>%
  droplevels() 
penguins_subset
```

    ## # A tibble: 131 x 17
    ##    studyName `Sample Number` Species Region Island Stage `Individual ID`
    ##    <fct>               <dbl> <fct>   <fct>  <fct>  <fct> <fct>          
    ##  1 PAL0708                 2 Adelie  Anvers Torge~ Adul~ N1A2           
    ##  2 PAL0708                 3 Adelie  Anvers Torge~ Adul~ N2A1           
    ##  3 PAL0708                 5 Adelie  Anvers Torge~ Adul~ N3A1           
    ##  4 PAL0708                 7 Adelie  Anvers Torge~ Adul~ N4A1           
    ##  5 PAL0708                13 Adelie  Anvers Torge~ Adul~ N7A1           
    ##  6 PAL0708                16 Adelie  Anvers Torge~ Adul~ N8A2           
    ##  7 PAL0708                17 Adelie  Anvers Torge~ Adul~ N9A1           
    ##  8 PAL0708                19 Adelie  Anvers Torge~ Adul~ N10A1          
    ##  9 PAL0708                21 Adelie  Anvers Biscoe Adul~ N11A1          
    ## 10 PAL0708                23 Adelie  Anvers Biscoe Adul~ N12A1          
    ## # ... with 121 more rows, and 10 more variables: `Clutch Completion` <fct>,
    ## #   `Date Egg` <date>, `Culmen Length (mm)` <dbl>, `Culmen Depth (mm)` <dbl>,
    ## #   `Flipper Length (mm)` <dbl>, `Body Mass (g)` <dbl>, Sex <fct>, `Delta 15 N
    ## #   (o/oo)` <dbl>, `Delta 13 C (o/oo)` <dbl>, Comments <fct>
…
