…
  - Belong to the genre *“Drama”*?
  - Don’t belong to the genre *“Drama”*?
  - Were filmed *after* the year 2000?
  - Have a rating of *4.5 or greater*?
  - Were filmed in 1999 *or* 2000?
  - Correspond to the movie *“Little Women”*?
  - Have *more than* 4.5 stars, and were released *before* 1995?

<!-- end list -->

``` r
filter(movieLens, genres == "Drama")
```

    ## # A tibble: 7,757 x 7
    ##    movieId title                             year genres userId rating timestamp
    ##      <int> <chr>                            <int> <fct>   <int>  <dbl>     <int>
    ##  1      31 Dangerous Minds                   1995 Drama       1    2.5    1.26e9
    ##  2    1172 Cinema Paradiso (Nuovo cinema P~  1989 Drama       1    4      1.26e9
    ##  3    1293 Gandhi                            1982 Drama       1    2      1.26e9
    ##  4      62 Mr. Holland's Opus                1995 Drama       2    3      8.35e8
    ##  5     261 Little Women                      1994 Drama       2    4      8.35e8
    ##  6     300 Quiz Show                         1994 Drama       2    3      8.35e8
    ##  7     508 Philadelphia                      1993 Drama       2    4      8.35e8
    ##  8     537 Sirens                            1994 Drama       2    4      8.35e8
    ##  9    2702 Summer of Sam                     1999 Drama       3    3.5    1.30e9
    ## 10    3949 Requiem for a Dream               2000 Drama       3    5      1.30e9
    ## # ... with 7,747 more rows

``` r
filter(movieLens, !genres == "Drama")
```

    ## # A tibble: 92,247 x 7
    ##    movieId title                year genres              userId rating timestamp
    ##      <int> <chr>               <int> <fct>                <int>  <dbl>     <int>
    ##  1    1029 Dumbo                1941 Animation|Children~      1    3      1.26e9
    ##  2    1061 Sleepers             1996 Thriller                 1    3      1.26e9
    ##  3    1129 Escape from New Yo~  1981 Action|Adventure|S~      1    2      1.26e9
    ##  4    1263 Deer Hunter, The     1978 Drama|War                1    2      1.26e9
    ##  5    1287 Ben-Hur              1959 Action|Adventure|D~      1    2      1.26e9
    ##  6    1339 Dracula (Bram Stok~  1992 Fantasy|Horror|Rom~      1    3.5    1.26e9
    ##  7    1343 Cape Fear            1991 Thriller                 1    2      1.26e9
    ##  8    1371 Star Trek: The Mot~  1979 Adventure|Sci-Fi         1    2.5    1.26e9
    ##  9    1405 Beavis and Butt-He~  1996 Adventure|Animatio~      1    1      1.26e9
    ## 10    1953 French Connection,~  1971 Action|Crime|Thril~      1    4      1.26e9
    ## # ... with 92,237 more rows

``` r
filter(movieLens, year > 2000)
```

    ## # A tibble: 25,481 x 7
    ##    movieId title                  year genres            userId rating timestamp
    ##      <int> <chr>                 <int> <fct>              <int>  <dbl>     <int>
    ##  1    5349 Spider-Man             2002 Action|Adventure~      3    3      1.30e9
    ##  2    5669 Bowling for Columbine  2002 Documentary            3    3.5    1.30e9
    ##  3    6377 Finding Nemo           2003 Adventure|Animat~      3    3      1.30e9
    ##  4    7153 Lord of the Rings: T~  2003 Action|Adventure~      3    2.5    1.30e9
    ##  5    7361 Eternal Sunshine of ~  2004 Drama|Romance|Sc~      3    3      1.30e9
    ##  6    8622 Fahrenheit 9/11        2004 Documentary            3    3.5    1.30e9
    ##  7    8636 Spider-Man 2           2004 Action|Adventure~      3    3      1.30e9
    ##  8   44191 V for Vendetta         2006 Action|Sci-Fi|Th~      3    3.5    1.30e9
    ##  9   48783 Flags of Our Fathers   2006 Drama|War              3    4.5    1.30e9
    ## 10   50068 Letters from Iwo Jima  2006 Drama|War              3    4.5    1.30e9
    ## # ... with 25,471 more rows

``` r
filter(movieLens, rating < 4.5)
```

    ## # A tibble: 77,186 x 7
    ##    movieId title                  year genres            userId rating timestamp
    ##      <int> <chr>                 <int> <fct>              <int>  <dbl>     <int>
    ##  1      31 Dangerous Minds        1995 Drama                  1    2.5    1.26e9
    ##  2    1029 Dumbo                  1941 Animation|Childr~      1    3      1.26e9
    ##  3    1061 Sleepers               1996 Thriller               1    3      1.26e9
    ##  4    1129 Escape from New York   1981 Action|Adventure~      1    2      1.26e9
    ##  5    1172 Cinema Paradiso (Nuo~  1989 Drama                  1    4      1.26e9
    ##  6    1263 Deer Hunter, The       1978 Drama|War              1    2      1.26e9
    ##  7    1287 Ben-Hur                1959 Action|Adventure~      1    2      1.26e9
    ##  8    1293 Gandhi                 1982 Drama                  1    2      1.26e9
    ##  9    1339 Dracula (Bram Stoker~  1992 Fantasy|Horror|R~      1    3.5    1.26e9
    ## 10    1343 Cape Fear              1991 Thriller               1    2      1.26e9
    ## # ... with 77,176 more rows

``` r
filter(movieLens, year == 1999 |year == 2000)
```

    ## # A tibble: 9,088 x 7
    ##    movieId title                   year genres           userId rating timestamp
    ##      <int> <chr>                  <int> <fct>             <int>  <dbl>     <int>
    ##  1    2694 Big Daddy               1999 Comedy                3    3      1.30e9
    ##  2    2702 Summer of Sam           1999 Drama                 3    3.5    1.30e9
    ##  3    2762 Sixth Sense, The        1999 Drama|Horror|My~      3    3.5    1.30e9
    ##  4    2841 Stir of Echoes          1999 Horror|Mystery|~      3    4      1.30e9
    ##  5    2858 American Beauty         1999 Drama|Romance         3    4      1.30e9
    ##  6    2959 Fight Club              1999 Action|Crime|Dr~      3    5      1.30e9
    ##  7    3510 Frequency               2000 Drama|Thriller        3    4      1.30e9
    ##  8    3949 Requiem for a Dream     2000 Drama                 3    5      1.30e9
    ##  9   27369 Daria: Is It Fall Yet?  2000 Animation|Comedy      3    3.5    1.30e9
    ## 10    2628 Star Wars: Episode I ~  1999 Action|Adventur~      4    5      9.50e8
    ## # ... with 9,078 more rows

``` r
filter(movieLens, title == "Little Women")
```

    ## # A tibble: 54 x 7
    ##    movieId title         year genres userId rating  timestamp
    ##      <int> <chr>        <int> <fct>   <int>  <dbl>      <int>
    ##  1     261 Little Women  1994 Drama       2    4    835355681
    ##  2     261 Little Women  1994 Drama      19    4    855194216
    ##  3     261 Little Women  1994 Drama      30    4    951008613
    ##  4     261 Little Women  1994 Drama      32    4    834828302
    ##  5     261 Little Women  1994 Drama      36    4    847057120
    ##  6     261 Little Women  1994 Drama      85    1    837513012
    ##  7     261 Little Women  1994 Drama      86    3    848161454
    ##  8     261 Little Women  1994 Drama      88    3.5 1239755456
    ##  9     261 Little Women  1994 Drama      95    5   1016317793
    ## 10     261 Little Women  1994 Drama     102    3    957894400
    ## # ... with 44 more rows

``` r
filter(movieLens, rating > 4.5, year < 1995)
```

    ## # A tibble: 8,386 x 7
    ##    movieId title                  year genres            userId rating timestamp
    ##      <int> <chr>                 <int> <fct>              <int>  <dbl>     <int>
    ##  1     265 Like Water for Choco~  1992 Drama|Fantasy|Ro~      2      5    8.35e8
    ##  2     266 Legends of the Fall    1994 Drama|Romance|Wa~      2      5    8.35e8
    ##  3     551 Nightmare Before Chr~  1993 Animation|Childr~      2      5    8.35e8
    ##  4     589 Terminator 2: Judgme~  1991 Action|Sci-Fi          2      5    8.35e8
    ##  5     590 Dances with Wolves     1990 Adventure|Drama|~      2      5    8.35e8
    ##  6     592 Batman                 1989 Action|Crime|Thr~      2      5    8.35e8
    ##  7     318 Shawshank Redemption~  1994 Crime|Drama            3      5    1.30e9
    ##  8     356 Forrest Gump           1994 Comedy|Drama|Rom~      3      5    1.30e9
    ##  9    1197 Princess Bride, The    1987 Action|Adventure~      3      5    1.30e9
    ## 10     260 Star Wars: Episode I~  1977 Action|Adventure~      4      5    9.50e8
    ## # ... with 8,376 more rows
…
    ## Error in title(.): plot.new has not been called yet

This means that when we filter for “Drama”, we are only filtering for
those movies that are classified as *exclusively* Drama. What if we want
to see all movies that *contain* “Drama” in their genres, even if they
are a Romance-Drama, or a Comedy-Drama? Here is a handy, **error-free**
expression that can help you do that. No errors, only for learning.

``` r
movieLens %>%
  filter(str_detect(genres, "Drama"))
```

    ## # A tibble: 44,752 x 7
    ##    movieId title                  year genres            userId rating timestamp
    ##      <int> <chr>                 <int> <fct>              <int>  <dbl>     <int>
    ##  1      31 Dangerous Minds        1995 Drama                  1    2.5    1.26e9
    ##  2    1029 Dumbo                  1941 Animation|Childr~      1    3      1.26e9
    ##  3    1172 Cinema Paradiso (Nuo~  1989 Drama                  1    4      1.26e9
    ##  4    1263 Deer Hunter, The       1978 Drama|War              1    2      1.26e9
    ##  5    1287 Ben-Hur                1959 Action|Adventure~      1    2      1.26e9
    ##  6    1293 Gandhi                 1982 Drama                  1    2      1.26e9
    ##  7    2455 Fly, The               1986 Drama|Horror|Sci~      1    2.5    1.26e9
    ##  8      17 Sense and Sensibility  1995 Drama|Romance          2    5      8.35e8
    ##  9      52 Mighty Aphrodite       1995 Comedy|Drama|Rom~      2    3      8.35e8
    ## 10      62 Mr. Holland's Opus     1995 Drama                  2    3      8.35e8
    ## # ... with 44,742 more rows
…
  - All colums *except* those from userId to timestamp (inclusive)
  - Columns year, title, and genres (in that order) *only* for movies
    classified *exclusively* as “Romance”
  - Columns rating, title, and year (in that order) followed by
    everything else (all other columns), only for movies *containing*
    the genre “Comedy”

<!-- end list -->

``` r
### ERROR HERE ###
select(movieLens, -(userId:timestamp))
```

    ## # A tibble: 100,004 x 4
    ##    movieId title                               year genres                      
    ##      <int> <chr>                              <int> <fct>                       
    ##  1      31 Dangerous Minds                     1995 Drama                       
    ##  2    1029 Dumbo                               1941 Animation|Children|Drama|Mu~
    ##  3    1061 Sleepers                            1996 Thriller                    
    ##  4    1129 Escape from New York                1981 Action|Adventure|Sci-Fi|Thr~
    ##  5    1172 Cinema Paradiso (Nuovo cinema Par~  1989 Drama                       
    ##  6    1263 Deer Hunter, The                    1978 Drama|War                   
    ##  7    1287 Ben-Hur                             1959 Action|Adventure|Drama      
    ##  8    1293 Gandhi                              1982 Drama                       
    ##  9    1339 Dracula (Bram Stoker's Dracula)     1992 Fantasy|Horror|Romance|Thri~
    ## 10    1343 Cape Fear                           1991 Thriller                    
    ## # ... with 99,994 more rows

``` r
movieLens %>%
  filter(genres == "Romance") %>%
  select(year, title, genres)
```

    ## # A tibble: 63 x 3
    ##     year title                    genres 
    ##    <int> <chr>                    <fct>  
    ##  1  1998 Meet Joe Black           Romance
    ##  2  1998 Meet Joe Black           Romance
    ##  3  1984 Against All Odds         Romance
    ##  4  1988 Everybody's All-American Romance
    ##  5  1998 Meet Joe Black           Romance
    ##  6  1998 Meet Joe Black           Romance
    ##  7  1998 Meet Joe Black           Romance
    ##  8  2004 Raise Your Voice         Romance
    ##  9  1998 Meet Joe Black           Romance
    ## 10  1998 Meet Joe Black           Romance
    ## # ... with 53 more rows
…
### Exercise 4

Some of our variables are currently in *camelCase* (in fact, *movieLens*
is in camelCase). Let’s clean these two variables to be *snake\_case*
instead, and assign our post-rename object back to “movieLens”.

``` r
movieLens <- movieLens %>%
  rename(user_id = userId,
         movie_id = movieId)
movieLens
```

    ## # A tibble: 100,004 x 7
    ##    movie_id title                year genres            user_id rating timestamp
    ##       <int> <chr>               <int> <fct>               <int>  <dbl>     <int>
    ##  1       31 Dangerous Minds      1995 Drama                   1    2.5    1.26e9
    ##  2     1029 Dumbo                1941 Animation|Childr~       1    3      1.26e9
    ##  3     1061 Sleepers             1996 Thriller                1    3      1.26e9
    ##  4     1129 Escape from New Yo~  1981 Action|Adventure~       1    2      1.26e9
    ##  5     1172 Cinema Paradiso (N~  1989 Drama                   1    4      1.26e9
    ##  6     1263 Deer Hunter, The     1978 Drama|War               1    2      1.26e9
    ##  7     1287 Ben-Hur              1959 Action|Adventure~       1    2      1.26e9
    ##  8     1293 Gandhi               1982 Drama                   1    2      1.26e9
    ##  9     1339 Dracula (Bram Stok~  1992 Fantasy|Horror|R~       1    3.5    1.26e9
    ## 10     1343 Cape Fear            1991 Thriller                1    2      1.26e9
    ## # ... with 99,994 more rows

As you already know, `mutate()` defines and inserts new variables into a
tibble. There is *another mystery function* that you’ve seen already
that adds the new variable, and drops existing ones. I wanted to create
an average\_rating column that takes the mean(rating) across all
entries, and I only want to see that variable (i.e drop all others\!)
but I forgot what that mystery function is. Can you remember?

``` r
transmute(movieLens,
       average_rating = mean(rating))
```

    ## # A tibble: 100,004 x 1
    ##    average_rating
    ##             <dbl>
    ##  1           3.54
    ##  2           3.54
    ##  3           3.54
    ##  4           3.54
    ##  5           3.54
    ##  6           3.54
    ##  7           3.54
    ##  8           3.54
    ##  9           3.54
    ## 10           3.54
    ## # ... with 99,994 more rows

### Exercise 5

I’m interested in arranging movies from the year 1998 by their
descending rating. Then, I would like to rearrange the columns to show
`rating` followed by `title`, and then followed by everything else.

``` r
movieLens %>%
  filter(year == 1998) %>%
  arrange(desc(rating)) %>%
  select(rating, title, everything())
```

    ## # A tibble: 4,019 x 7
    ##    rating title             movie_id  year genres              user_id timestamp
    ##     <dbl> <chr>                <int> <int> <fct>                 <int>     <int>
    ##  1      5 Wedding Singer, ~     1777  1998 Comedy|Romance            8    1.15e9
    ##  2      5 American History~     2329  1998 Crime|Drama               8    1.15e9
    ##  3      5 Truman Show, The      1682  1998 Comedy|Drama|Sci-Fi       9    9.39e8
    ##  4      5 There's Somethin~     1923  1998 Comedy|Romance           10    9.43e8
    ##  5      5 Out of Sight          1912  1998 Comedy|Crime|Drama~      15    1.03e9
    ##  6      5 Rushmore              2395  1998 Comedy|Drama             15    9.98e8
    ##  7      5 Fear and Loathin~     1884  1998 Adventure|Comedy|D~      17    1.13e9
    ##  8      5 Pi                    1921  1998 Drama|Sci-Fi|Thril~      17    1.13e9
    ##  9      5 Following             2579  1998 Crime|Mystery|Thri~      17    1.13e9
    ## 10      5 Sliding Doors         1680  1998 Drama|Romance            20    1.22e9
    ## # ... with 4,009 more rows

Instead of filtering to a specific year, group the movies by year, and
then arrange by ascending rating. Lastly, select only the year, title,
and rating, in that order.

*Hint:* Grouped arrange needs one more argument…

``` r
movieLens %>%
  group_by(year) %>%
  arrange(rating, .by_group = TRUE) %>%
  select(year, title, rating)
```

    ## # A tibble: 100,004 x 3
    ## # Groups:   year [104]
    ##     year title                                         rating
    ##    <int> <chr>                                          <dbl>
    ##  1  1902 Trip to the Moon, A (Voyage dans la lune, Le)    3  
    ##  2  1902 Trip to the Moon, A (Voyage dans la lune, Le)    4  
    ##  3  1902 Trip to the Moon, A (Voyage dans la lune, Le)    4.5
    ##  4  1902 Trip to the Moon, A (Voyage dans la lune, Le)    4.5
    ##  5  1902 Trip to the Moon, A (Voyage dans la lune, Le)    5  
    ##  6  1902 Trip to the Moon, A (Voyage dans la lune, Le)    5  
    ##  7  1915 Birth of a Nation, The                           2.5
    ##  8  1915 Birth of a Nation, The                           3.5
    ##  9  1916 20,000 Leagues Under the Sea                     3.5
    ## 10  1917 Immigrant, The                                   4  
    ## # ... with 99,994 more rows
…
  - Each entry of the movieLens table corresponds to a movie rating by a
    user. Therefore, if more than one user rated the same movie, there
    will be several entries for the same movie. I want to find out how
    many times each movie has been reviewed, or in other words, how many
    times each movie title appears in the dataset.

<!-- end list -->

``` r
movieLens %>%
  group_by(title) %>%
  tally()
```

    ## # A tibble: 8,832 x 2
    ##    title                                  n
    ##    <chr>                              <int>
    ##  1 "'burbs, The"                         19
    ##  2 "'Hellboy': The Seeds of Creation"     1
    ##  3 "'Neath the Arizona Skies"             1
    ##  4 "'night Mother"                        3
    ##  5 "'Round Midnight"                      2
    ##  6 "'Salem's Lot"                         1
    ##  7 "'Til There Was You"                   4
    ##  8 "\"Great Performances\" Cats"          2
    ##  9 "$9.99"                                3
    ## 10 "(500) Days of Summer"                45
    ## # ... with 8,822 more rows

  - Without using `group_by()`, I want to find out how many movie
    reviews there have been by year.

<!-- end list -->

``` r
movieLens %>%
  count(year)
```

    ## # A tibble: 104 x 2
    ##     year     n
    ##    <int> <int>
    ##  1  1902     6
    ##  2  1915     2
    ##  3  1916     1
    ##  4  1917     2
    ##  5  1918     2
    ##  6  1919     1
    ##  7  1920    15
    ##  8  1921    12
    ##  9  1922    28
    ## 10  1923     3
    ## # ... with 94 more rows

  - Both `count()` and `tally()` can be called repeatedly, each time
    adding up a level of detail. Below, I want to count the number of
    movie reviews by title and rating, and sort the results.

<!-- end list -->

``` r
movieLens %>%
  count(title, rating)
```

    ## # A tibble: 28,297 x 3
    ##    title                            rating     n
    ##    <chr>                             <dbl> <int>
    ##  1 'burbs, The                         1.5     1
    ##  2 'burbs, The                         2       4
    ##  3 'burbs, The                         2.5     1
    ##  4 'burbs, The                         3       5
    ##  5 'burbs, The                         3.5     3
    ##  6 'burbs, The                         4       4
    ##  7 'burbs, The                         4.5     1
    ##  8 'Hellboy': The Seeds of Creation    2       1
    ##  9 'Neath the Arizona Skies            0.5     1
    ## 10 'night Mother                       5       3
    ## # ... with 28,287 more rows
…
